Job Title,Job Responsibility,Profession,Speciality,Degree,Experience,Address,Location,Ed volume,Dates,Shift,Rate
Physician Doctor,Physician Doctor Responsibility,Nurse,Registered Nurse,RN,0 - 1,Alabama,Alabama,1 - 10K,mm/dd/yyyy|11/26/2018|11/27/2018|11/28/2018|11/29/2018|11/30/2018,Day,12
Physician Doctor,Physician Doctor Responsibility,Nurse,Registered Nurse,RN,0 - 1,Alabama,Alabama,1 - 10K,11/26/2018|11/27/2018|11/28/2018|11/29/2018|11/30/2018,Day,12
Physician Doctor,Physician Doctor Responsibility,Nurse,Registered Nurse,RN,0 - 1,Alabama,Alabama,1 - 10K,11/26/2018|11/27/2018|11/28/2018|11/29/2018|11/30/2018,Day,12
