Job Title,Job Responsibility,Profession,Speciality,Degree,Experience,Address,Location,Ed volume,From Date,To Date,Shift,Rate
Physician Doctor 1,Physician Doctor Responsibility,Physician,Med-Peds,M.D.,0 - 1,Alabama,Alabama,1 - 10K,10/10/2020,11/10/2020,Day,100
Physician Doctor 2,Physician Doctor Responsibility,Physician,Med-Peds,M.D.,0 - 1,Alabama,Alabama,1 - 10K,10/10/2020,11/10/2020,Day,300
Physician Doctor 3,Physician Doctor Responsibility,Physician,Med-Peds,M.D.,0 - 1,Alabama,Alabama,1 - 10K,10/10/2020,11/10/2020,Day,500
